1       105     677  +
2       768    1796  -
3      3419    5188  +
4      5251    6306  -
5      6309    7397  -
6      7458    8315  -
7      8427    9197  +
8      9202   10206  +
9     10203   10577  +
10    10581   11420  +
11    11421   12161  +
12    12154   12753  +
13    12746   14728  +
14    14725   15345  -
15    15345   15716  -
16    15995   16804  +
17    16807   17808  -
18    17792   18304  -
19    18312   19979  -
20    21058   22101  -
21    22146   22739  -
22    22819   23958  +
23    23965   24696  -
24    24697   25623  -
25    25753   26391  +
26    26399   27448  +
27    27434   27865  -
28    27855   28490  -
29    28492   29472  -
30    29543   31015  +
31    31027   31479  +
32    31550   32089  -
33    32157   34037  -
34    34037   35836  -
35    35857   36609  -
36    36606   38123  -
37    38136   39638  -
38    39826   40677  +
39    40761   41432  -
40    41443   42483  -
41    42480   42881  -
42    42907   45354  -
43    45446   45991  +
44    46011   46379  -
45    47167   47841  +
46    47917   48606  +
47    48603   49259  -
48    49341   50012  +
49    50112   50474  -
50    50490   51251  -
51    51253   52434  -
52    52454   53461  -
53    53534   55504  -
54    55501   56280  -
55    56281   56748  -
56    56832   57185  -
57    57259   57975  +
58    58029   58982  -
59    59101   60039  -
60    60036   60533  -
61    60568   61257  -
62    61254   63032  -
63    63147   64028  +
64    64038   65276  +
65    65291   65752  +
66    65768   67240  +
67    67248   69569  +
68    69566   70126  +
69    70142   71218  +
70    71201   72610  +
71    72647   73492  +
72    73489   74517  +
73    75774   76454  +
74    76451   77701  +
75    77711   79009  -
76    79002   79322  -
77    79505   80773  +
78    80983   81408  +
79    81405   82940  +
80    82970   83920  -
81    84041   85720  -
82    85880   86854  -
83    86926   87360  -
84    87377   89203  -
85    89200   89808  -
86    89811   91115  -
87    91137   92864  -
88    92878   93423  -
89    93433   94032  -
90    94219   94605  -
91    94611   96953  -
92    96943   97866  -
93    97863   98648  -
94    98817  100205  +
95   100228  100749  +
96   100746  101339  -
97   101525  102949  -
98   103016  103771  -
99   103764  105299  -
100  105418  105846  -
101  105884  106894  -
102  106974  108170  -
103  108307  109671  +
104  109675  111042  -
105  111046  111567  -
106  111585  111875  -
107  111889  112338  -
108  112350  112769  -
109  112909  114603  -
110  114807  115508  +
111  115505  116806  -
112  117678  118370  -
113  118375  118929  -
114  118964  119803  -
115  119807  120589  -
116  120804  121082  -
117  121101  121823  -
118  121880  122491  -
119  122491  124146  -
120  124149  124814  -
121  124798  125547  -
122  125534  126301  -
123  126316  127413  -
124  127427  130132  -
125  130170  131114  -
126  131298  132425  +
127  132472  133842  -
128  133975  135864  +
129  135874  137766  -
130  137880  138089  -
131  138434  138745  -
132  141979  142932  -
133  142944  144230  -
134  144307  144597  +
135  144586  145458  -
136  145471  146370  -
137  146377  147495  -
138  147649  148659  -
139  148786  150783  -
140  150974  152179  +
141  152206  153012  +
142  153075  153686  -
143  153701  156400  -
144  156462  157598  +
145  157627  158061  +
146  158076  158474  +
147  158628  159344  +
148  159368  160042  +
149  160090  161208  +
150  161200  162801  -
151  162878  163045  +
152  163072  164820  -
153  164901  165887  -
154  165915  167759  -
155  167879  169399  -
156  169563  170708  +
157  170720  171097  -
158  171263  171484  +
159  171532  173535  -
160  173529  174116  -
161  174098  174970  -
162  175081  176082  -
163  176069  176974  -
164  176978  177853  -
165  177868  178860  -
166  178917  179543  -
167  179540  181405  -
168  181408  182802  -
169  182886  183380  +
170  183392  185275  +
171  185278  186552  +
172  186554  186946  +
173  186949  187194  +
174  187178  187831  -
175  187824  188237  -
176  188234  188494  -
177  188708  189055  -
178  189076  189276  -
179  189299  189859  -
180  190187  190717  +
181  190719  191459  +
182  191518  192327  -
183  192324  193463  -
184  193800  194873  +
185  194876  195736  +
186  195693  197696  +
187  197686  199950  +
188  199965  201050  -
189  201052  202578  -
190  202850  204088  +
191  204137  205072  +
192  205175  206044  +
193  206529  208106  +
194  208084  208581  -
195  209529  211274  +
196  211301  212068  +
197  212061  215420  +
198  215427  217259  +
199  217278  218312  +
200  218425  219078  -
201  219056  219634  -
202  219800  220639  +
203  220729  221637  +
204  221742  223178  +
205  223179  223961  +
206  223964  224785  -
207  224826  226610  -
208  226610  227827  -
209  227814  228521  -
210  229217  230224  +
211  230214  231491  -
212  231621  232322  +
213  232338  235253  +
214  235289  235534  -
215  235595  237142  -
216  237222  237629  -
217  237630  237956  -
218  237969  238226  -
219  238301  239128  -
220  239144  240250  -
221  240283  242289  -
222  242438  244003  +
223  243943  244713  -
224  244777  245382  -
225  245790  246554  +
226  246597  248102  +
227  248156  248434  +
228  248506  250089  +
229  250176  250670  -
230  250657  251211  -
231  251212  252237  -
232  252434  253039  +
233  253159  254931  +
234  254945  255649  +
235  255646  256260  +
236  256463  258985  +
237  259000  261303  +
238  261292  263712  -
239  263988  266114  +
240  266107  267051  +
241  267066  267275  +
242  267313  269676  -
243  269673  270473  -
244  270488  272641  -
245  272634  273647  -
246  273857  275236  +
247  275243  276496  -
248  276558  277064  +
249  277090  278559  -
250  278537  279058  -
251  279078  279380  -
252  279407  281311  -
253  281314  281793  -
254  281800  282687  -
255  282699  283865  -
256  283869  285962  -
257  285971  287089  -
258  287089  287877  -
259  287910  288173  -
260  288182  288946  -
261  288957  289583  -
262  289576  289917  -
263  289963  291021  -
264  291059  291595  -
265  291644  292426  -
266  292426  293208  -
267  293205  293429  -
268  293452  294780  -
269  294785  295228  -
270  295242  296420  -
271  296428  297045  -
272  297038  297469  -
273  297466  298776  -
274  298795  299715  -
275  299730  300764  -
276  300780  302489  -
277  302504  302839  -
278  302851  303309  -
279  303333  303740  -
280  303774  305120  -
281  305113  305661  -
282  305671  306615  -
283  306625  307317  -
284  307318  308517  -
285  308539  309780  -
286  309780  310523  -
287  310559  311617  -
288  311660  312715  -
289  312729  314123  -
290  314146  314427  -
291  314424  315314  -
292  315307  316143  -
293  316140  317216  -
294  317247  318005  -
295  318277  319116  -
296  319106  319636  -
297  319680  320249  -
298  320309  321352  +
299  321352  322038  +
300  322040  322846  -
301  322847  323779  -
302  323776  325236  -
303  325236  326288  -
304  326469  326666  -
305  326699  327757  -
306  328032  329165  +
307  329262  329621  +
308  329643  330752  -
309  330803  333598  -
310  333619  334515  -
311  334937  336508  +
312  336629  338215  +
313  338358  339983  +
314  340062  340217  -
315  340341  341261  +
316  341274  342323  +
317  342335  343207  +
318  343208  344179  +
319  344192  344932  -
320  345063  346364  +
321  346431  346841  -
322  346861  347301  -
323  347351  348160  -
324  348153  349610  -
325  349600  351045  -
326  351056  351331  -
327  351341  353437  -
328  353440  354636  -
329  354648  355298  -
330  355491  356909  +
331  357007  358440  +
332  358458  359198  +
333  359217  359495  -
334  359513  361078  -
335  361188  362321  +
336  362318  364117  -
337  364130  364972  -
338  365115  365603  -
339  366229  366960  -
340  366964  368391  -
341  368456  368881  +
342  368885  370027  +
343  370027  371013  +
344  371034  373046  +
345  373140  373520  +
346  373567  374151  -
347  374277  375653  +
348  375661  375939  +
349  375961  377019  -
350  377039  379258  -
351  379341  380558  -
352  380555  381892  -
353  381910  383382  -
354  383395  384162  -
355  384287  385426  +
356  385449  386162  +
357  386159  387337  +
358  387334  387807  +
359  387818  388480  -
360  388507  388926  -
361  388977  390341  -
362  390392  391819  -
363  391932  392957  -
364  393044  394063  -
365  394105  395166  -
366  395481  396506  -
367  396604  397077  -
368  397102  397476  -
369  397544  401677  -
370  401693  405160  -
371  405243  405617  -
372  405688  406176  -
373  406181  406861  -
374  406861  407292  -
375  407344  407898  -
376  407922  408092  -
377  408201  408380  -
378  408554  409402  -
379  409416  410447  -
380  410787  411446  +
381  411456  413006  -
382  413113  414315  +
383  414327  415793  -
384  415846  416478  -
385  416689  417105  +
386  417102  417713  +
387  417724  418335  +
388  418388  419506  -
389  419503  421380  -
390  421554  422183  +
391  423055  423834  +
392  423822  424442  -
393  424694  425551  +
394  425584  426711  +
395  426736  427950  +
396  427987  428622  +
397  428646  429674  +
398  429693  430616  -
399  430619  435103  -
400  441713  442552  -
401  442688  443248  -
402  446327  446875  -
403  446969  447736  -
404  447855  448172  +
405  448202  448591  -
406  448708  449310  +
407  449419  450171  +
408  450174  450887  +
409  451139  451921  -
410  452040  454472  -
411  454484  456388  -
412  456576  458036  +
413  458277  459434  +
414  459525  459824  +
415  459916  460071  +
416  460052  460411  +
417  460398  462032  +
418  462045  462773  +
419  462819  463886  +
420  464053  465132  +
421  465518  467278  -
422  467282  469387  -
423  469390  469665  -
424  469678  469971  -
425  469961  471220  -
426  471223  471756  -
427  471771  472358  -
428  472566  473408  +
429  473405  474556  -
430  474613  475602  +
431  475606  476211  +
432  476263  478005  -
433  478196  479716  +
434  479709  481019  +
435  481344  482057  -
436  482600  484282  +
437  484287  484586  +
438  484757  485266  +
439  485550  486077  +
440  486074  486769  +
441  486747  487538  +
442  487535  488224  +
443  488226  488972  +
444  488983  489495  +
445  489733  490554  +
446  490644  491927  +
447  492588  493952  +
448  494150  494539  -
449  495033  496217  +
450  496268  496579  +
451  496615  497235  +
452  497245  497874  +
453  497895  498191  +
454  498213  499046  +
455  499056  499334  +
456  499341  499703  +
457  499707  500588  +
458  500593  501009  +
459  501015  501212  +
460  501215  501469  +
461  501497  501865  +
462  501880  502185  +
463  502191  502739  +
464  502756  502941  +
465  502951  503349  +
466  503366  503908  +
467  503926  504285  +
468  504298  504795  +
469  504799  505104  +
470  505104  505541  +
471  505554  506858  +
472  506865  506984  +
473  507002  507379  +
474  507406  507798  +
475  507814  508848  +
476  508870  509241  +
477  509314  510846  +
478  510836  511624  +
479  511605  512396  +
480  512393  513139  -
481  513226  514527  +
482  514524  515783  +
483  516493  522993  +
484  522990  524576  +
485  524554  526254  +
486  526325  527305  +
487  528104  529198  -
488  529198  531105  -
489  531129  531692  -
490  534301  535155  +
491  535178  535600  -
492  535704  537527  +
493  537544  538308  +
494  538328  539275  -
495  540159  540773  -
496  542263  543024  +
497  543049  543816  +
498  543832  544605  +
499  544586  547387  +
500  547846  548490  -
501  548487  548885  -
502  548920  549618  -
503  549642  551723  -
504  552440  553018  +
505  553139  553789  +
506  553992  555212  +
507  555216  556580  +
508  556563  557423  -
509  557407  558024  -
510  558006  560732  -
511  560729  561127  -
512  561117  561554  -
513  561563  561943  -
514  562185  564167  +
515  564188  565681  -
516  565955  567823  +
517  567810  568277  +
518  568270  569139  +
519  569278  569538  +
520  569559  571280  +
521  571283  571852  +
522  571890  573740  -
523  573853  575247  +
524  575274  575816  -
525  575981  576499  -
526  576582  577187  -
527  577395  577937  +
528  577950  578261  +
529  578277  580421  +
530  580486  581643  +
531  581645  583417  +
532  583458  583832  +
533  584191  584880  -
534  585080  586156  +
535  586218  587024  +
536  587031  587882  +
537  588066  589667  +
538  589684  590208  -
539  590348  590935  +
540  591188  592357  +
541  592446  595931  +
542  595943  596521  +
543  596531  598591  +
544  598588  599376  -
545  599495  600844  +
546  601010  602344  +
547  602374  603729  +
548  603726  604769  -
549  604779  606983  -
550  607138  607935  +
551  608020  609078  +
552  609061  609906  -
553  609943  611193  -
554  611309  612022  +
555  612048  613985  +
556  614014  615771  -
557  615764  616390  -
558  616412  618559  -
559  618828  621035  +
560  621045  621953  -
561  622005  623447  +
562  623451  625007  +
563  625007  626260  +
564  626286  627038  +
565  627092  628948  -
566  629196  630698  -
567  630796  631986  +
568  631991  632482  +
569  632485  634464  +
570  634581  636011  +
571  636593  637957  +
572  637972  638556  +
573  638580  639872  +
574  639859  642249  +
575  642289  642441  +
576  642500  643126  -
577  643295  644650  -
578  644772  645140  +
579  645137  645601  -
580  645719  646681  +
581  646659  648254  -
582  648553  649107  +
583  649170  650387  -
584  650413  653790  -
585  653887  654849  +
586  654863  656902  +
587  656998  657543  -
588  657546  658817  -
589  658898  659623  +
590  659644  661515  -
591  661606  662529  +
592  662603  662917  -
593  663179  665011  -
594  665008  668517  -
595  671767  673167  -
596  673342  674778  +
597  675035  676378  +
598  676472  677860  +
599  677892  678938  -
600  678959  679750  -
601  679754  680557  -
602  680563  681606  -
603  681685  682524  -
604  682679  683377  +
605  683423  684967  +
606  684997  685980  -
607  685977  686507  -
608  686607  688295  -
609  688490  690127  +
610  690193  690489  +
611  690482  690799  +
612  690885  692645  +
613  692629  693528  +
614  693554  694696  +
615  694693  695523  -
616  695631  696764  +
617  696751  697437  -
618  697586  698332  +
619  698400  699965  -
620  700052  700924  -
621  701029  701385  +
622  701395  701805  +
623  701825  702274  +
624  702283  702951  -
625  703009  703968  +
626  703961  704959  +
627  704949  705500  +
628  705580  706605  +
629  706673  709267  +
630  709274  710674  +
631  710686  711171  +
632  711211  711651  +
633  711692  712207  -
634  712204  713250  -
635  713244  714107  -
636  714104  714766  -
637  715009  716619  +
638  716620  717771  +
639  717743  718669  +
640  718827  721088  +
641  721119  723020  +
642  723063  724130  -
643  724224  725447  +
644  725431  726495  +
645  726458  727753  +
646  727737  728675  +
647  728666  729619  +
648  729613  730506  +
649  730632  731099  -
650  731184  731720  +
651  731794  733803  +
652  734081  735289  +
653  735352  736686  +
654  736699  736959  +
655  736960  737208  +
656  737212  737712  +
657  737709  738428  +
658  738406  738771  +
659  739144  739683  +
660  739685  740176  +
661  740240  740422  +
662  740446  740688  +
663  740688  741425  +
664  741396  742628  -
665  742744  744516  +
666  744522  744845  +
667  745302  746333  +
668  748123  750018  +
669  750031  750789  +
670  751191  752159  +
671  752170  753219  +
672  753292  754068  +
673  754068  754550  +
674  754637  756349  +
675  756354  757670  +
676  757836  759581  +
677  759586  760215  +
678  760226  761647  +
679  761621  762154  -
680  762251  763573  +
681  763579  764361  +
682  764371  765342  +
683  765373  766716  +
684  766733  768064  -
685  768079  769470  -
686  769547  771139  -
687  771162  771563  -
688  771570  774368  -
689  774677  775462  +
690  775666  776679  -
691  776785  777573  +
692  777765  778754  +
693  778758  781385  +
694  781486  782073  -
695  782152  782829  -
696  782976  783248  -
697  783390  785021  +
698  785057  786754  +
699  786860  788962  +
700  789303  789938  +
701  789947  790807  -
702  790807  791787  -
703  791794  792252  -
704  792351  793625  +
705  793842  794855  -
706  794875  796383  -
707  796388  797122  -
708  797119  798048  -
709  798057  799016  -
710  799208  800275  -
711  800476  801072  +
712  801119  801778  +
713  801941  802798  -
714  802838  803167  -
715  803278  804165  +
716  804417  805772  -
717  805775  806923  -
718  806920  807966  -
719  807976  808464  -
720  808461  809552  -
721  809701  810495  -
722  810470  811510  -
723  811507  812388  -
724  812439  813239  -
725  813386  813706  -
726  813690  814697  -
727  814868  815302  -
728  815502  816299  -
729  816312  817160  -
730  817396  817956  +
731  818018  818548  +
732  818605  818916  +
733  818922  819242  +
734  819242  819487  +
735  819542  820528  +
736  820607  821188  +
737  821185  822369  +
738  822344  822694  +
739  822810  823103  +
740  823263  823811  +
741  823816  824382  +
742  824382  825704  +
743  825701  827620  +
744  827631  829112  +
745  829218  830321  +
746  830318  830941  -
747  830955  831563  -
748  831646  836043  +
749  836061  838526  +
750  838547  839080  +
751  839244  841832  +
752  841834  842451  +
753  842501  842989  +
754  843003  844451  +
755  844454  847102  +
756  847126  847488  +
757  847491  848339  +
758  848538  848804  +
759  848837  850987  +
760  850994  852514  +
761  852489  853778  +
762  853775  854842  +
763  854869  855996  +
764  855989  857509  +
765  857506  858915  +
766  858939  860111  -
767  860440  861774  +
768  862699  863646  +
769  863636  865042  +
770  865053  865919  +
771  865916  866458  +
772  866494  866694  +
773  866681  867601  +
774  867743  868114  -
775  868195  868740  +
776  868733  869380  -
777  869508  870023  -
778  870112  872583  -
779  872586  875132  -
780  875207  876448  +
781  876492  879281  +
782  879315  880250  +
783  880267  881091  -
784  881085  884213  -
785  884228  886447  -
786  886470  888179  -
787  888312  890318  +
788  890322  893174  +
789  893129  896569  +
790  896579  897127  -
791  897096  897695  -
792  897704  899320  -
793  899499  900731  +
794  900799  901782  +
795  901834  903258  +
796  903929  904900  -
797  908407  909591  +