1           1     2304  -
2        2487     3923  +
3        3946     4548  +
4        4584     5102  -
5       10753    11397  +
6       11758    11946  -
7       11960    12148  -
8       12244    12399  -
9       12432    13208  -
10      13557    14816  +
11      14871    15398  -
12      15446    16138  -
13      16325    17551  -
14      17824    19581  -
15      19603    19863  -
16      19909    20178  -
17      20790    21386  -
18      21414    21755  -
19      21830    23479  -
20      23508    23711  -
21      24390    24629  -
22      24825    25391  -
23      25611    26051  -
24      26462    27028  -
25      27169    28062  +
26      28683    29963  -
27      30264    30641  -
28      30658    32043  -
29      32094    34310  -
30      34405    37068  -
31      37111    37623  -
32      37641    38096  -
33      43745    46177  -
34      46198    48111  -
35      48131    48394  -
36      48425    49528  -
37      49641    49847  -
38      49861    50964  -
39      51225    52589  -
40      53086    53220  +
41      53277    53612  +
42      53609    53818  +
43      53836    54498  +
44      54512    55138  +
45      55193    56572  +
46      56582    58453  +
47      58475    59194  +
48      59309    60088  +
49      60191    60970  +
50      60963    61820  +
51      61860    62357  +
52      62379    62954  -
53      63010    64065  -
54      64302    65186  +
55      65179    65379  +
56      65477    65761  +
57      65777    66214  +
58      66235    66501  +
59      66688    67005  +
60      67019    68008  +
61      68021    70015  +
62      70012    70455  +
63      70549    72360  +
64      72416    73750  +
65      73872    75389  +
66      75563    76000  +
67      76027    76242  +
68      76265    76795  -
69      76996    78405  +
70      78525    78728  +
71      78851    79600  +
72      79615    80838  -
73      80972    81355  +
74      81362    82177  +
75      82777    83766  -
76      83763    84737  -
77      84888    85955  +
78      85948    86403  +
79      86418    87422  +
80      87442    87666  +
81      87677    88618  +
82      88611    89549  +
83      89557    90312  +
84      90342    91577  +
85      91580    92038  +
86      92073    92501  +
87      92509    93849  +
88      93861    95588  +
89      95696    97032  +
90      97100    97609  -
91      97682    98875  -
92      98954    99388  -
93      99484    99975  -
94     100272   100904  +
95     100960   102351  -
96     102883   103350  +
97     103488   104177  +
98     104193   104747  +
99     104842   105591  -
100    105626   106525  -
101    106685   107161  +
102    107204   108037  -
103    108080   109057  -
104    109203   110387  +
105    110388   111269  -
106    111391   112581  +
107    112660   113367  -
108    113407   113967  -
109    113969   114856  -
110    114869   115027  -
111    115152   115748  +
112    115815   116735  -
113    116754   117509  -
114    117502   118425  -
115    118508   119209  -
116    119233   119418  -
117    119563   119841  +
118    120086   120745  +
119    120820   121299  -
120    121371   121871  -
121    121902   122081  -
122    122065   122631  -
123    122647   123432  -
124    123445   124701  -
125    124938   125096  -
126    125222   125773  +
127    125817   127715  -
128    127891   128241  +
129    128258   128917  +
130    129072   130868  +
131    130992   132328  +
132    132395   133444  -
133    133569   134684  +
134    134764   135708  +
135    135779   136480  +
136    136637   136969  -
137    137119   137772  -
138    137800   139146  -
139    139252   139557  -
140    139628   140998  -
141    141177   141995  +
142    142101   142391  +
143    142543   143910  +
144    143935   144891  +
145    145038   145724  +
146    145728   147134  +
147    147221   148396  +
148    148498   149064  +
149    149090   152170  +
150    152208   153227  +
151    153345   153896  +
152    154026   155579  +
153    155576   157024  +
154    157117   157410  +
155    157483   157728  +
156    157840   158130  +
157    158139   158561  +
158    158632   158904  +
159    158961   159371  +
160    160188   162575  +
161    162670   164073  +
162    164060   164605  +
163    164704   166515  +
164    166633   167016  +
165    167196   167984  +
166    167984   168952  +
167    169006   169842  +
168    169936   170418  +
169    170435   171943  +
170    172508   173899  +
171    174280   175656  +
172    181171   181911  +
173    181997   182740  +
174    183147   183644  +
175    183701   184852  -
176    185007   185219  +
177    185198   186613  +
178    186642   187328  +
179    187399   187728  +
180    187744   188697  +
181    188703   189611  +
182    189622   189825  +
183    189916   190086  +
184    190156   191492  -
185    191678   192433  +
186    192436   193281  +
187    193426   194520  +
188    194726   194968  -
189    195206   195850  +
190    196197   197072  -
191    197483   198436  +
192    198553   198714  +
193    198922   200634  +
194    200659   201135  +
195    201266   201649  +
196    201870   203345  +
197    203391   203627  -
198    203720   205174  -
199    205125   206531  -
200    206889   207464  +
201    207507   207986  +
202    208056   208781  +
203    208774   210420  +
204    210458   211024  +
205    211425   213350  +
206    213502   214269  +
207    214543   215583  +
208    215650   216207  +
209    216194   217033  +
210    217116   218405  +
211    218519   219109  +
212    219201   219950  +
213    219980   220819  +
214    220842   221684  +
215    221802   221993  +
216    222035   222682  -
217    222915   224252  -
218    224794   226908  +
219    226913   227422  +
220    227491   227856  +
221    228081   228863  +
222    229023   229358  +
223    229373   231163  +
224    231549   234659  +
225    234852   235850  +
226    236036   240094  +
227    240171   241238  +
228    241365   242747  +
229    242883   244109  +
230    244146   245270  -
231    245471   246469  +
232    246462   247214  +
233    247225   248241  +
234    248280   249434  -
235    249573   250577  +
236    250732   251769  +
237    251831   253513  +
238    253525   254604  +
239    254876   256828  +
240    256816   257112  +
241    257099   257383  +
242    257329   257571  -
243    258330   260339  +
244    260455   261342  +
245    261616   261849  +
246    262220   263782  +
247    263894   264691  +
248    264695   267319  +
249    267405   268247  +
250    268353   268553  +
251    268571   270043  +
252    270067   271167  +
253    271160   272344  +
254    272403   273059  +
255    273074   274243  -
256    274467   275834  +
257    275976   277001  +
258    277022   278002  +
259    278023   278445  +
260    278818   279120  +
261    279260   279607  +
262    279807   281276  +
263    281385   283265  +
264    283341   283553  -
265    283757   284335  +
266    284345   285253  +
267    285272   286150  +
268    286215   287282  +
269    287305   287901  +
270    287983   288684  +
271    288708   289760  +
272    289846   290298  +
273    290357   290806  +
274    290828   291457  +
275    291586   292074  +
276    292088   293122  +
277    293150   294298  +
278    294440   295615  +
279    295823   296473  +
280    296500   297753  +
281    297829   298887  +
282    299052   299765  +
283    299875   300129  +
284    300216   301247  +
285    301269   301826  -
286    301892   302602  -
287    303526   304701  +
288    304873   307104  +
289    307118   308149  +
290    308122   308796  +
291    309207   309737  +
292    309757   310533  -
293    310734   313244  +
294    313304   314417  +
295    314463   315806  -
296    315916   318072  +
297    318625   319239  +
298    319315   320841  +
299    320867   321130  +
300    321139   321825  +
301    321872   322651  -
302    322793   323581  +
303    323610   326048  -
304    326500   327060  -
305    327205   327411  +
306    327433   327711  +
307    327781   328680  -
308    328825   329859  +
309    329898   330848  -
310    331126   331506  -
311    331525   332193  -
312    332318   333976  +
313    334054   334392  +
314    334431   334886  -
315    335150   335581  +
316    335684   336631  +
317    336944   337642  +
318    338007   338567  +
319    338583   339566  +
320    339601   340308  +
321    340305   340943  +
322    341149   342318  +
323    342374   343603  -
324    343749   344324  +
325    344328   345149  +
326    345426   346805  +
327    346876   347826  +
328    347823   348983  +
329    349100   349498  +
330    350732   352954  +
331    353039   353737  +
332    353817   354638  +
333    354716   355183  +
334    355199   356041  +
335    356136   357215  +
336    357281   358825  +
337    358929   359906  +
338    359899   360819  +
339    360892   362430  -
340    362449   363555  -
341    363628   364614  -
342    364953   366329  +
343    366477   367499  +
344    367595   368602  +
345    368711   369907  +
346    369938   370687  +
347    370698   372239  +
348    372258   373553  +
349    373742   373966  +
350    374053   376074  +
351    376266   378392  +
352    378641   378940  +
353    379026   379496  +
354    380624   381466  +
355    381459   382745  +
356    382957   383979  -
357    384103   385182  +
358    385442   385852  +
359    385970   386656  +
360    386678   387727  +
361    387847   388617  +
362    388628   390595  +
363    390718   391404  +
364    391418   391651  +
365    391663   392190  +
366    392204   393094  -
367    393294   394553  +
368    394803   396311  +
369    396524   398716  +
370    398872   399390  -
371    399487   399690  -
372    399915   400664  +
373    400654   401451  +
374    401456   402478  +
375    402595   403758  +
376    403813   404451  +
377    404598   406310  +
378    406476   407162  +
379    407167   408621  +
380    408683   409882  +
381    409896   410273  +
382    410415   411149  +
383    411181   411546  +
384    411659   413212  -
385    413308   413643  -
386    413931   415319  +
387    415386   416528  +
388    416718   418277  +
389    418324   418782  -
390    418970   420079  +
391    420337   420771  +
392    420773   422509  +
393    422502   424277  +
394    424421   426253  +
395    426274   426549  +
396    426570   427448  +
397    427480   427881  +
398    428020   428448  +
399    428496   429125  +
400    429283   429606  +
401    429780   430268  -
402    430438   431733  +
403    431770   432396  -
404    432380   433162  -
405    433445   433831  -
406    433988   434299  -
407    434468   435526  +
408    435552   436496  -
409    436740   437081  +
410    437125   438300  -
411    438293   438817  -
412    439016   439225  +
413    439279   439731  +
414    440372   441748  +
415    442029   442382  +
416    442635   443396  -
417    443558   444445  +
418    444472   445572  +
419    445553   446518  +
420    446581   447917  -
421    448062   450170  -
422    450183   450422  -
423    450576   451043  +
424    451239   452117  -
425    452281   453636  +
426    453944   454513  +
427    454543   455826  +
428    455907   457601  +
429    457791   458288  -
430    458458   459504  +
431    459770   463378  +
432    463508   463672  +
433    463792   464136  +
434    464179   468183  +
435    469186   469884  +
436    470110   470967  +
437    471902   473884  +
438    474168   474449  +
439    474881   476809  +
440    477101   477976  +
441    478094   478519  -
442    478783   480489  +
443    480571   481875  -
444    481986   483125  -
445    483159   484706  -
446    484749   485525  -
447    485612   486139  +
448    486492   487301  +
449    487490   488803  +
450    488995   489450  +
451    489447   490760  +
452    490775   491491  +
453    491488   492702  +
454    492721   492858  +
455    492846   493982  +
456    493995   495191  +
457    495298   496122  +
458    496243   497769  +
459    497989   500916  +
460    501017   503086  +
461    503151   505238  +
462    505633   506556  -
463    506670   507542  -
464    507557   508489  -
465    508728   509165  +
466    509327   509797  +
467    510000   511778  +
468    511884   512651  -
469    512896   514050  +
470    514113   514958  +
471    514978   515997  +
472    516004   516792  +
473    516810   518744  +
474    518789   519802  +
475    519834   520730  +
476    520763   521788  +
477    521977   523569  +
478    523777   525531  +
479    525598   526934  -
480    527266   529023  +
481    529141   530802  +
482    531085   533700  +
483    533741   535180  +
484    535711   536772  +
485    536938   537777  +
486    538139   538690  +
487    538767   539180  +
488    539295   539624  -
489    539779   540177  +
490    540426   541484  +
491    541778   542677  +
492    542772   544502  -
493    544754   545746  +
494    546129   546293  +
495    546664   547968  +
496    547972   549240  +
497    549604   552201  +
498    552382   553179  +
499    553262   553786  -
500    553768   554838  -
501    555169   555900  -
502    555919   557289  -
503    557324   558475  -
504    558694   560451  +
505    560613   561758  +
506    561864   562679  +
507    562775   563215  +
508    563306   563947  +
509    564030   564518  +
510    570458   571333  -
511    571629   572303  +
512    572399   572722  -
513    572773   573228  +
514    573332   573847  +
515    573837   574796  +
516    574841   576571  -
517    576911   577729  +
518    577754   578569  +
519    578640   579290  +
520    579332   580063  +
521    580132   581328  +
522    581425   582741  +
523    583228   584580  +
524    584873   585790  +
525    586068   586259  +
526    586174   587934  +
527    588005   588478  -
528    588624   588965  +
529    589152   590360  +
530    590475   591416  +
531    591492   592298  +
532    592346   592876  +
533    592947   593177  -
534    593351   596494  -
535    596869   597276  +
536    597458   598171  +
537    598200   599120  +
538    599240   600415  +
539    600416   603553  +
540    603668   605254  +
541    605332   606510  -
542    606488   607696  -
543    607768   609333  -
544    609771   610280  +
545    610381   611016  +
546    611054   611602  +
547    611669   613225  -
548    613424   614062  +
549    614184   614645  -
550    614765   615883  -
551    615934   617346  -
552    617375   617863  -
553    617877   618686  -
554    619004   620275  +
555    620315   621415  -
556    621634   622338  +
557    622335   623777  +
558    623774   624880  +
559    625498   625818  -
560    626067   626483  +
561    626699   628057  +
562    628116   630104  -
563    630397   630834  +
564    630891   631295  +
565    631339   632775  -
566    632753   633292  -
567    633447   635615  +
568    635981   636316  +
569    636618   636824  +
570    636817   637098  +
571    637244   638149  -
572    638579   639160  +
573    639228   639869  +
574    640106   640876  -
575    640869   641351  -
576    641529   641876  +
577    641866   642591  +
578    642709   643107  +
579    644449   645153  +
580    645156   645905  +
581    645905   646681  +
582    646738   647400  +
583    647388   648752  +
584    649712   650677  +
585    650846   651709  +
586    651905   652240  +
587    652237   652563  +
588    652710   653498  +
589    653501   655198  +
590    655367   656062  -
591    656403   656660  +
592    656753   657259  +
593    657336   657650  +
594    658393   659250  +
595    659923   660408  +
596    660603   661634  +
597    662071   662277  -
598    663039   663476  +
599    663554   664051  -
600    664600   666450  -
601    666465   667169  -
602    667209   668099  -
603    668439   669101  -
604    669287   669820  -
605    669841   670236  -
606    670355   671200  +
607    671322   671903  +
608    672058   672957  +
609    673015   673713  +
610    673859   676351  +
611    676395   676709  -
612    677374   679029  -
613    679185   679718  +
614    679724   680254  +
615    680489   683152  +
616    683258   683854  +
617    683847   684146  +
618    684158   684763  +
619    684841   685269  +
620    685315   685761  -
621    685763   686593  -
622    686590   687915  -
623    688596   689678  +
624    689707   690357  +
625    690719   691918  +
626    691944   692405  +
627    692724   693743  +
628    693837   694232  +
629    694390   695022  +
630    695073   695591  +
631    695640   697559  -
632    697760   698200  +
633    698200   699138  +
634    699185   699547  -
635    699718   700005  +
636    700107   701012  +
637    701022   702467  +
638    702591   703298  +
639    703423   706875  +
640    706931   708031  -
641    708021   708554  -
642    708816   709025  +
643    709060   709272  -
644    709488   711554  +
645    711634   713133  -
646    713469   715616  -
647    715777   716577  -
648    716641   718242  -
649    718281   719336  -
650    719684   721237  -
651    721335   721652  +
652    721679   722023  +
653    722086   722661  +
654    722754   724013  -
655    724019   725155  -
656    725719   726267  +
657    726485   727462  +
658    727518   728144  +
659    728293   728712  +
660    729081   730481  +
661    730766   732340  +
662    732341   733738  +
663    733820   734959  +
664    734977   735756  +
665    735777   736787  +
666    736881   740645  +
667    740793   741527  +
668    742344   743141  -
669    743335   743928  +
670    743964   744518  +
671    744531   745289  +
672    745755   747221  +
673    747256   748209  +
674    748215   749333  +
675    749330   750055  +
676    750052   750351  +
677    750329   751024  +
678    751072   752271  +
679    752229   752960  +
680    752878   753750  +
681    753763   755220  +
682    755237   756217  +
683    756210   757478  +
684    757491   758810  +
685    758837   759469  +
686    759483   760553  +
687    761212   761781  +
688    761774   762439  +
689    762457   763227  +
690    763231   764226  +
691    764256   764972  +
692    764990   765760  +
693    765853   766359  +
694    766346   767098  +
695    767134   767937  +
696    768079   768597  +
697    768888   769277  +
698    769299   769817  +
699    770298   774542  +
700    774778   776166  +
701    776159   781825  +
702    781883   786418  +
703    786591   787463  +
704    787454   787771  +
705    787756   789069  +
706    789070   789756  +
707    789859   790839  +
708    790974   791708  +
709    791710   792630  +
710    792649   792909  +
711    793821   794966  +
712    794986   797013  +
713    797026   797754  +
714    797735   799273  +
715    799276   800250  +
716    800251   801090  +
717    801093   802607  +
718    802609   805125  +
719    805142   806728  +
720    806878   808584  +
721    808662   810473  +
722    810525   810731  +
723    810817   811866  +
724    811902   812984  +
725    813005   815008  +
726    815058   816119  +
727    816402   817469  +
728    817556   823198  +
729    823810   824295  +
730    824484   826205  +
731    826235   827086  +
732    827494   828519  +
733    828637   829236  +
734    829233   830090  -
735    830092   831144  -
736    831167   832111  -
737    832312   833145  +
738    833656   834909  +
739    834976   836312  -
740    836525   837499  +
741    837786   838793  +
742    838806   839837  +
743    839910   840542  +
744    840586   841221  +
745    841362   842981  +
746    843031   844005  -
747    844256   844750  -
748    844924   845673  +
749    845732   846328  -
750    846351   846950  -
751    846963   847568  -
752    847585   848184  -
753    848197   849078  -
754    849091   849456  -
755    849627   850328  +
756    850345   851910  +
757    851930   852808  +
758    853101   853547  -
759    853754   854002  -
760    854223   857144  +
761    857352   859070  +
762    859140   860060  +
763    860094   860978  -
764    861354   862046  +
765    862143   863414  +
766    863414   864649  +
767    864827   865564  -
768    865890   867272  +
769    867419   868759  +
770    868891   869565  +
771    869578   870492  +
772    870766   871995  +
773    872010   872705  +
774    872757   874169  +
775    874260   875438  +
776    875536   876081  +
777    876206   876997  +
778    877273   878589  +
779    878962   880298  +
780    880363   880692  -
781    880851   881933  +
782    882354   882863  +
783    882919   883518  -
784    883736   884341  +
785    884401   884553  +
786    884772   885617  +
787    885610   887325  +
788    887328   888587  +
789    888637   890709  +
790    890763   891866  +
791    891896   892183  -
792    892279   893637  -
793    893891   894838  +
794    894831   895061  +
795    895220   895957  +
796    896090   897043  +
797    897274   898548  +
798    898564   899466  +
799    900528   901220  +
800    901222   902664  +
801    902694   903824  -
802    903838   905022  -
803    905037   906020  -
804    906064   906660  -
805    906970   907248  +
806    907272   908141  +
807    908491   908829  +
808    908892   909572  +
809    909774   911297  -
810    911324   912334  -
811    912809   913855  +
812    913939   915453  +
813    915473   916483  +
814    916580   917584  +
815    917668   919221  +
816    919242   920399  +
817    920389   920529  +
818    920555   921538  +
819    921792   922598  +
820    922635   923366  -
821    923605   923748  +
822    923821   924381  +
823    924419   925012  -
824    925035   925304  -
825    925328   925507  -
826    925635   925898  -
827    926067   926753  +
828    926753   928126  +
829    928285   928551  +
830    928573   931017  +
831    931050   931256  +
832    931494   933143  +
833    933159   933425  -
834    933871   934452  +
835    934564   934875  -
836    934960   935547  -
837    935728   936285  -
838    936420   938111  +
839    938231   938458  +
840    938486   938812  +
841    938958   939809  +
842    939815   940249  +
843    940357   941379  +
844    941506   943563  +
845    943582   944856  -
846    944872   945681  -
847    945841   946962  +
848    947049   947684  +
849    947821   948492  +
850    948820   949518  +
851    950007   950678  -
852    950794   951276  +
853    951273   951992  +
854    952044   952232  +
855    952258   952722  +
856    952968   953990  +
857    954324   955751  +
858    955793   956671  +
859    956704   957153  -
860    957425   957838  +
861    957878   958888  +
862    959013   960494  +
863    960509   961477  +
864    961532   962506  +
865    962558   963166  +
866    963183   964103  +
867    964188   965216  +
868    965238   965723  +
869    965997   966662  +
870    966707   967690  +
871    967874   969628  +
872    969630   971354  +
873    971529   972089  -
874    972536   973891  -
875    974050   974418  +
876    974498   975592  +
877    975595   976845  +
878    976848   977513  +
879    978387   979013  +
880    979108   979488  +
881    979678   980580  +
882    981122   983131  +
883    983277   984467  +
884    984561   985781  +
885    985778   987043  +
886    987116   987337  +
887    987337   988797  +
888    988834   989532  +
889    989533   990438  +
890    990510   990803  +
891    990985   991356  +
892    991363   991509  +
893    991598   993019  +
894    993066   994313  +
895    994497   995717  +
896    995774   996511  +
897    996725   999136  +
898    999210  1000142  +
899   1000265  1000999  -
900   1001000  1001935  -
901   1002063  1002698  -
902   1002719  1003678  -
903   1004043  1006124  +
904   1006356  1007291  +
905   1007319  1007969  +
906   1008007  1009059  +
907   1009091  1010302  +
908   1010564  1011931  +
909   1012080  1012898  +
910   1012943  1014613  -
911   1014662  1015366  -
912   1015561  1017318  +
913   1017334  1018062  +
914   1018111  1018881  -
915   1018882  1019949  -
916   1019961  1020983  -
917   1021323  1022063  +
918   1022207  1024330  -
919   1024881  1025945  +
920   1025947  1027044  +
921   1027060  1027818  +
922   1027836  1028159  +
923   1028210  1028563  -
924   1028608  1028874  -
925   1029104  1031137  +
926   1031452  1033143  +
927   1033250  1034047  +
928   1034081  1034239  -
929   1034253  1036016  -
930   1035991  1036269  -
931   1036524  1037258  +
932   1037273  1037929  +
933   1037992  1038687  +
934   1038823  1040343  +
935   1040392  1041180  +
936   1041206  1042405  +
937   1042424  1043833  +
938   1043876  1045342  -
939   1045533  1047053  -
940   1047217  1048122  +
941   1048156  1049415  -
942   1049554  1050177  +
943   1050297  1050518  +
944   1050562  1052043  -
945   1052170  1054176  +
946   1054282  1056333  +
947   1056371  1057333  +
948   1057352  1058959  +
949   1058991  1060481  -
950   1060627  1061187  +
951   1061281  1062009  +
952   1062115  1062627  +
953   1062642  1064372  +
954   1064504  1064830  +
955   1064817  1066787  +
956   1066802  1067275  +
957   1067312  1067908  +
958   1067922  1068923  +
959   1068916  1069224  +
960   1069243  1071015  +
961   1071008  1072393  +
962   1072408  1073046  +
963   1073192  1073596  +
964   1073733  1074233  +
965   1074521  1075696  +
966   1075753  1076103  +
967   1076136  1076693  +
968   1076938  1077909  +
969   1078073  1079860  +
970   1079898  1080815  +
971   1080834  1081385  +
972   1081442  1082842  +
973   1083040  1083909  -
974   1084283  1084630  +
975   1084725  1085048  +
976   1085140  1085616  -
977   1086018  1086287  +
978   1086342  1086788  -
979   1086785  1087555  -
980   1087927  1089234  +
981   1089255  1090187  +
982   1090189  1090758  +
983   1090761  1091363  +
984   1091410  1091985  +
985   1092010  1092882  +
986   1092919  1093464  -
987   1093465  1093863  -
988   1093850  1094878  -
989   1095152  1097026  -
990   1097207  1100983  +
991   1101063  1101674  +
992   1102034  1102675  +
993   1102665  1103372  +
994   1103511  1103780  +
995   1103800  1105155  +
996   1105168  1105674  +
997   1105724  1106788  -
998   1106909  1107934  -
999   1108103  1109992  +
1000  1109996  1111156  +
1001  1111153  1112355  +
1002  1112395  1113681  -
1003  1113702  1114505  -
1004  1114883  1115914  +
1005  1115970  1116746  +
1006  1116761  1117255  +
1007  1117281  1118564  +
1008  1118697  1119131  +
1009  1119134  1120336  +
1010  1120342  1120770  +
1011  1120845  1121921  +
1012  1121993  1122490  +
1013  1122483  1123496  +
1014  1123799  1126438  +
1015  1126523  1126774  +
1016  1126830  1127246  +
1017  1127266  1127535  +
1018  1127653  1128117  +
1019  1128164  1129831  +
1020  1129916  1130266  +
1021  1130388  1132214  +
1022  1132232  1133251  +
1023  1133269  1133916  +
1024  1133919  1135136  +
1025  1135167  1135796  +
1026  1135962  1137494  +
1027  1137606  1138064  +
1028  1138054  1139562  -
1029  1139585  1139869  -
1030  1139887  1140231  -
1031  1140258  1140716  -
1032  1140732  1141175  -
1033  1141336  1141551  +
1034  1141558  1142370  +
1035  1142403  1142804  -
1036  1143365  1143622  +
1037  1144110  1145051  +
1038  1145053  1145859  +
1039  1145852  1146031  +
1040  1146049  1146927  +
1041  1146940  1147314  +
1042  1147396  1147824  +
1043  1147821  1148450  +
1044  1148625  1149065  -
1045  1149550  1149711  +
1046  1149692  1149889  +
1047  1149892  1150032  +
1048  1150032  1150232  +
1049  1150270  1150581  +
1050  1150593  1151060  +
1051  1151297  1151473  +
1052  1151705  1151947  +
1053  1152545  1153633  +
1054  1153679  1154602  +
1055  1154592  1155935  +
1056  1155935  1157392  +
1057  1157449  1157922  +
1058  1157959  1159659  +
1059  1159656  1159856  +
1060  1159920  1160120  +
1061  1160120  1160737  +
1062  1160752  1161084  +
1063  1161104  1162138  +
1064  1162194  1162382  +
1065  1162385  1162687  +
1066  1162684  1163049  +
1067  1163051  1163398  +
1068  1163403  1163822  +
1069  1163827  1164699  +
1070  1164715  1165176  +
1071  1165124  1165330  +
1072  1165343  1165669  +
1073  1165727  1167772  +
1074  1168161  1169258  +
1075  1169258  1169590  +
1076  1169603  1170163  +
1077  1170160  1171191  +
1078  1171194  1172429  +
1079  1172442  1174334  +
1080  1174339  1174593  +
1081  1174609  1175607  +
1082  1175618  1176700  +
1083  1176776  1177561  +
1084  1177611  1178489  +
1085  1179075  1179269  +
1086  1179688  1179921  +
1087  1179939  1180202  +
1088  1180203  1181003  +
1089  1181236  1182288  +
1090  1182272  1182604  +
1091  1182597  1183403  +
1092  1183756  1184898  +
1093  1185045  1185305  +
1094  1185379  1186149  +
1095  1186168  1187223  +
1096  1187456  1188667  +
1097  1188787  1190049  +
1098  1190065  1191180  +
1099  1191335  1192138  +
1100  1192285  1192992  +
1101  1193066  1193839  +
1102  1193967  1194236  +
1103  1194304  1194762  +
1104  1195145  1195843  +
1105  1195854  1197569  +
1106  1197706  1198578  +
1107  1198630  1199517  +
1108  1199522  1200409  +
1109  1200420  1201169  +
1110  1201292  1202608  +
1111  1202609  1203925  +
1112  1203927  1204922  +
1113  1205056  1206534  +
1114  1206919  1207515  -
1115  1207827  1208132  -
1116  1208850  1209593  +
1117  1209608  1210951  +
1118  1210967  1211866  +
1119  1211894  1212976  +
1120  1213027  1215306  +
1121  1215335  1215829  +
1122  1215847  1216839  +
1123  1216851  1217129  +
1124  1219629  1221578  +
1125  1221805  1222617  +
1126  1222806  1223213  +
1127  1223407  1223634  +
1128  1223807  1224727  -
1129  1224746  1226023  -
1130  1226392  1226925  -
1131  1227276  1228748  +
1132  1228884  1231022  -
1133  1231665  1231820  +
1134  1231968  1233002  +
1135  1233152  1233442  +
1136  1233525  1234469  +
1137  1234853  1238380  +
1138  1238439  1238606  -
1139  1238697  1240334  -
1140  1240543  1241454  -
1141  1241631  1243571  -
1142  1243800  1245053  +
1143  1245064  1245330  +
1144  1245391  1245921  +
1145  1246008  1246901  -
1146  1247092  1247406  +
1147  1247448  1247597  +
1148  1247616  1248062  +
1149  1248109  1248873  -
1150  1249155  1249838  +
1151  1250124  1250888  +
1152  1250908  1252284  +
1153  1252533  1253789  +
1154  1253834  1254787  +
1155  1254972  1255655  +
1156  1255677  1255904  +
1157  1255919  1256446  +
1158  1256470  1257360  -
1159  1258012  1259712  +
1160  1259786  1261075  +
1161  1261207  1262487  -
1162  1262903  1263259  +
1163  1263382  1263948  +
1164  1264288  1265496  +
1165  1266153  1267175  -
1166  1267554  1268306  +
1167  1268355  1269821  -
1168  1270573  1271070  -
1169  1271359  1272675  +
1170  1272788  1273717  -
1171  1273925  1277524  +
1172  1277552  1278436  +
1173  1278532  1279422  +
1174  1279432  1280439  +
1175  1280432  1281229  +
1176  1281257  1281856  +
1177  1281846  1283588  +
1178  1283608  1285269  +
1179  1285373  1285690  -
1180  1285902  1287380  +
1181  1287420  1287980  +
1182  1288228  1289043  +
1183  1289376  1290731  +
1184  1290735  1291007  -
1185  1291140  1291889  +
1186  1292407  1294413  -
1187  1294426  1294653  -
1188  1294673  1294891  -
1189  1295211  1295669  +
1190  1296082  1296501  +
1191  1296538  1296975  +
1192  1297047  1298759  +
1193  1298882  1299763  +
1194  1299884  1300756  +
1195  1300817  1301287  -
1196  1301584  1302462  +
1197  1302476  1302745  +
1198  1302745  1303371  +
1199  1303352  1303570  +
1200  1303573  1304766  +
1201  1304848  1307055  +
1202  1307078  1307530  +
1203  1307535  1308464  +
1204  1308480  1309160  +
1205  1309238  1310566  +
1206  1310576  1311616  +
1207  1311621  1312367  +
1208  1312342  1314153  +
1209  1314172  1315044  +
1210  1315038  1315691  +
1211  1315688  1316329  +
1212  1316392  1316553  +
1213  1316675  1316866  -
1214  1317056  1317406  +
1215  1317421  1319061  +
1216  1319119  1321170  +
1217  1321261  1321818  +
1218  1321820  1322302  +
1219  1322314  1322841  +
1220  1322842  1323990  -
1221  1324141  1324746  -
1222  1324854  1326065  -
1223  1326361  1327359  +
1224  1327414  1328616  +
1225  1328693  1329196  +
1226  1329210  1329392  +
1227  1329690  1330694  +
1228  1330795  1331028  +
1229  1331154  1331861  +
1230  1331854  1332909  +
1231  1333029  1333289  +
1232  1333452  1333550  +
1233  1333563  1337123  +
1234  1337149  1338060  +
1235  1338306  1338659  +
1236  1338662  1340017  +
1237  1340057  1340314  +
1238  1340331  1340558  +
1239  1340616  1341110  +
1240  1341095  1341814  +
1241  1341939  1342286  +
1242  1342341  1342865  +
1243  1342886  1343731  +
1244  1343767  1344561  +
1245  1344580  1344948  -
1246  1345199  1346704  +
1247  1346718  1347806  +
1248  1347862  1349946  +
1249  1350208  1350984  +
1250  1351198  1351899  +
1251  1351985  1352899  +
1252  1353050  1353763  +
1253  1353778  1354329  +
1254  1354391  1355158  +
1255  1355395  1356192  +
1256  1356347  1357321  +
1257  1357347  1358501  +
1258  1358545  1359558  +
1259  1359571  1360620  +
1260  1360643  1364926  +
1261  1365136  1365597  +
1262  1365613  1366698  +
1263  1366719  1366988  +
1264  1366978  1367283  +
1265  1367306  1369354  +
1266  1369370  1369735  +
1267  1369722  1370687  +
1268  1370684  1371553  +
1269  1371565  1372515  +
1270  1372619  1372882  +
1271  1372995  1375112  +
1272  1375177  1376475  +
1273  1376552  1376827  +
1274  1376844  1378049  +
1275  1378111  1378788  +
1276  1379043  1381274  +
1277  1381295  1382629  +
1278  1382613  1383176  +
1279  1383544  1384596  +
1280  1384696  1386267  +
1281  1386462  1386722  +
1282  1386822  1387679  +
1283  1387699  1388958  +
1284  1388975  1389331  +
1285  1389517  1390710  +
1286  1390790  1391047  +
1287  1391083  1391301  -
1288  1391585  1392850  +
1289  1393171  1394157  +
1290  1394175  1394546  -
1291  1394722  1395324  +
1292  1395361  1396644  -
1293  1396751  1396990  -
1294  1397038  1397982  -
1295  1398000  1399862  -
1296  1399874  1402519  -
1297  1402637  1403995  -
1298  1404107  1404604  -
1299  1404625  1405395  -
1300  1405654  1405839  +
1301  1405851  1406099  +
1302  1406158  1406325  -
1303  1406454  1406861  -
1304  1407047  1409047  -
1305  1409405  1410604  +
1306  1410626  1411504  -
1307  1411596  1412651  -
1308  1412752  1413132  -
1309  1413361  1415268  -
1310  1415265  1415945  -
1311  1416013  1416369  -
1312  1416369  1417595  -
1313  1417647  1418558  -
1314  1418887  1419057  -
1315  1419076  1419780  -
1316  1419806  1420555  -
1317  1420652  1421998  -
1318  1422199  1422768  -
1319  1422791  1422940  -
1320  1423319  1424887  -
1321  1425126  1425656  -
1322  1425681  1426871  -
1323  1426885  1428309  -
1324  1428311  1429360  -
1325  1429377  1429622  -
1326  1430219  1431136  -
1327  1431270  1431686  -
1328  1431865  1433076  +
1329  1433121  1435109  -
1330  1435389  1436258  -
1331  1436400  1437806  -
1332  1437814  1438932  -
1333  1438945  1439724  -
1334  1439858  1441822  -
1335  1441842  1443302  -
1336  1443314  1444786  -
1337  1444783  1445148  -
1338  1445150  1445575  -
1339  1445576  1445854  -
1340  1445851  1446090  -
1341  1446077  1446397  -
1342  1446397  1446669  -
1343  1446659  1447147  -
1344  1447306  1448223  -
1345  1448369  1448806  -
1346  1448955  1449554  +
1347  1449765  1450637  -
1348  1450973  1451620  +
1349  1451628  1451930  +
1350  1451971  1453314  -
1351  1453535  1454074  -
1352  1454164  1454982  -
1353  1454996  1455592  -
1354  1455638  1456594  -
1355  1456837  1457355  -
1356  1457684  1458595  +
1357  1458595  1459791  +
1358  1459918  1461225  -
1359  1461283  1461945  -
1360  1462098  1462298  -
1361  1462765  1464843  +
1362  1465006  1466385  +
1363  1466464  1468410  -
1364  1468596  1468949  +
1365  1469020  1471650  -
1366  1472103  1474580  -
1367  1474665  1476422  -
1368  1476572  1477453  +
1369  1477502  1478695  -
1370  1478692  1479720  -
1371  1479733  1480881  -
1372  1481268  1481711  -
1373  1481814  1482647  -
1374  1482750  1483556  -
1375  1483582  1484406  -
1376  1484420  1485193  -
1377  1485207  1486154  -
1378  1486158  1487717  -
1379  1488225  1489361  -
1380  1489571  1490557  +
1381  1490554  1491831  +
1382  1492110  1492964  -
1383  1493239  1493937  -
1384  1494815  1495078  -
1385  1495389  1495556  -
1386  1495878  1496090  -
1387  1496493  1497692  -
1388  1497708  1499615  -
1389  1499839  1500546  -
1390  1500580  1501776  -
1391  1501819  1503021  -
1392  1503295  1504029  +
1393  1504425  1505129  +
1394  1505162  1506196  +
1395  1506254  1507051  +
1396  1507135  1507764  -
1397  1507796  1508539  -
1398  1508640  1508939  -
1399  1509112  1509855  -
1400  1510107  1510838  -
1401  1511004  1511588  -
1402  1512061  1513647  +
1403  1513648  1514598  +
1404  1514600  1515415  +
1405  1515429  1516370  +
1406  1516354  1517124  +
1407  1517168  1518019  +
1408  1518084  1519420  -
1409  1519574  1521298  -
1410  1521295  1523103  -
1411  1523253  1524242  -
1412  1524369  1524887  -
1413  1525054  1525524  +
1414  1525542  1526228  +
1415  1526295  1526522  -
1416  1526776  1526877  +
1417  1527185  1527490  +
1418  1527468  1527860  +
1419  1527941  1528858  -
1420  1528858  1531485  -
1421  1531482  1532165  -
1422  1532289  1533542  -
1423  1533553  1534245  -
1424  1534420  1534764  -
1425  1534786  1535958  -
1426  1536280  1537938  -
1427  1538200  1538826  +
1428  1538872  1539324  -
1429  1539348  1539818  -
1430  1539846  1540844  -
1431  1540913  1541209  -
1432  1542058  1542324  +
1433  1542746  1543096  +
1434  1543098  1543298  +
1435  1543431  1544165  +
1436  1544489  1544659  -
1437  1545061  1545255  +
1438  1545261  1545680  +
1439  1545777  1546073  +
1440  1546172  1546390  -
1441  1546407  1546628  -
1442  1546799  1547686  +
1443  1547947  1548507  +
1444  1548735  1549283  +
1445  1549313  1549768  +
1446  1550040  1550384  +
1447  1550478  1552106  -
1448  1553027  1553614  -
1449  1553850  1554401  +
1450  1555300  1555590  -
1451  1555658  1556308  -
1452  1556308  1557906  -
1453  1557941  1558630  -
1454  1558661  1559311  -
1455  1559346  1559609  -
1456  1559606  1559908  -
1457  1559924  1560772  -
1458  1560754  1561422  -
1459  1561429  1561872  -
1460  1561869  1562222  -
1461  1562262  1563215  -
1462  1563237  1565777  -
1463  1565916  1566224  -
1464  1566246  1566542  -
1465  1566649  1566915  -
1466  1566902  1568017  -
1467  1568461  1569291  -
1468  1569374  1570516  -
1469  1571588  1572091  -
1470  1572396  1572800  +
1471  1573868  1574935  -
1472  1574978  1576114  -
1473  1576490  1577302  +
1474  1577340  1577690  -
1475  1578402  1579985  -
1476  1580563  1580853  -
1477  1580854  1581852  -
1478  1581862  1582353  -
1479  1582362  1584962  -
1480  1585019  1585789  -
1481  1585793  1586746  -
1482  1586758  1588497  -
1483  1588510  1589202  -
1484  1589322  1589468  -
1485  1590320  1591906  -
1486  1593444  1594592  -
1487  1595395  1595637  -
1488  1595606  1595929  -
1489  1596262  1596732  -
1490  1596867  1597955  -
1491  1598120  1598677  +
1492  1598678  1599271  +
1493  1599282  1600583  -
1494  1600701  1600883  +
1495  1601056  1602771  +
1496  1602895  1603476  -
1497  1603541  1604425  -
1498  1604409  1604558  -
1499  1604649  1605866  -
1500  1605838  1606506  -
1501  1606861  1607079  -
1502  1607291  1607458  -
1503  1607756  1608070  -
1504  1608151  1608726  -
1505  1608982  1610160  -
1506  1610174  1610893  -
1507  1611099  1611941  +
1508  1612018  1613811  -
1509  1614004  1615878  -
1510  1616114  1616332  +
1511  1616366  1616536  -
1512  1616560  1616754  -
1513  1617147  1617842  -
1514  1617863  1619299  -
1515  1619309  1620061  -
1516  1620048  1620773  -
1517  1620869  1622110  -
1518  1622284  1623747  -
1519  1623829  1624878  -
1520  1624939  1625622  -
1521  1625990  1627435  -
1522  1627576  1627896  -
1523  1628071  1628256  +
1524  1628308  1629249  -
1525  1629413  1630360  +
1526  1630409  1631362  -
1527  1631534  1632244  -
1528  1632367  1633356  +
1529  1633654  1635354  -
1530  1635668  1637026  -
1531  1637452  1638834  -
1532  1639001  1640692  -
1533  1641128  1641574  -
1534  1642117  1643286  +
1535  1643432  1644829  +
1536  1644873  1645526  -
1537  1645594  1646757  -
1538  1646937  1647281  +
1539  1647336  1647680  -
1540  1647708  1649165  -
1541  1649283  1649984  -
1542  1649962  1651578  -
1543  1651759  1652883  -
1544  1653015  1653521  +
1545  1653539  1653955  +
1546  1654115  1654684  -
1547  1654659  1655423  -
1548  1655502  1656656  -
1549  1656937  1657752  -
1550  1657784  1658683  -
1551  1659010  1659636  -
1552  1659775  1660320  +
1553  1660410  1660886  -
1554  1661019  1663010  -
1555  1663821  1664825  -
1556  1664842  1665102  -
1557  1665120  1665353  -
1558  1665626  1666054  -
1559  1666338  1668320  -
1560  1668304  1668492  -
1561  1668482  1670374  -
1562  1670386  1671108  -
1563  1671112  1673850  -
1564  1673831  1674166  -
1565  1674181  1674483  -
1566  1674530  1675156  -
1567  1675175  1675558  -
1568  1675561  1675887  -
1569  1675874  1676203  -
1570  1676218  1676535  -
1571  1676589  1677404  -
1572  1677494  1678117  -
1573  1678199  1679071  -
1574  1679064  1680335  -
1575  1680351  1682081  -
1576  1682210  1682779  -
1577  1682965  1683393  -
1578  1683520  1683708  -
1579  1683954  1684214  -
1580  1684323  1684832  -
1581  1684984  1685232  -
1582  1685300  1686064  -
1583  1686429  1686695  -
1584  1687004  1689745  -
1585  1690009  1691229  -
1586  1691931  1692686  -
1587  1692999  1693367  -
1588  1693628  1693849  +
1589  1694789  1695271  -
1590  1695271  1696272  -
1591  1696400  1697218  -
1592  1697400  1698608  -
1593  1698805  1700502  -
1594  1700507  1700968  -
1595  1700987  1701811  -
1596  1701820  1702638  -
1597  1702660  1704516  -
1598  1704519  1705085  -
1599  1705839  1706705  -
1600  1706731  1706955  -
1601  1707049  1708239  -
1602  1708239  1709075  -
1603  1709091  1709552  -
1604  1709702  1710097  -
1605  1710200  1710709  -
1606  1710768  1711385  -
1607  1711397  1711978  -
1608  1711983  1713143  -
1609  1713154  1713540  -
1610  1713550  1713747  -
1611  1713760  1714281  -
1612  1714298  1715206  -
1613  1715369  1715776  -
1614  1715864  1716421  -
1615  1716499  1717566  -
1616  1717579  1718019  -
1617  1718119  1718622  -
1618  1718687  1719085  -
1619  1719075  1719530  -
1620  1719542  1720303  -
1621  1720456  1720908  -
1622  1720905  1721336  -
1623  1721320  1721769  -
1624  1721777  1722166  -
1625  1722198  1723253  -
1626  1723411  1724859  -
1627  1724971  1726026  -
1628  1726190  1727914  +
1629  1727958  1728506  -
1630  1728507  1729154  -
1631  1729341  1730264  +
1632  1730290  1731063  -
1633  1731065  1731202  -
1634  1731350  1732678  -
1635  1732758  1733291  -
1636  1733457  1734374  -
1637  1734349  1734819  -
1638  1734873  1735505  -
1639  1735558  1736838  -
1640  1736877  1737674  -
1641  1737686  1738378  -
1642  1738495  1739568  -
1643  1739632  1740252  -
1644  1740269  1741045  -
1645  1741042  1741305  -
1646  1741325  1741786  -
1647  1741801  1742469  -
1648  1742542  1743273  -
1649  1743288  1743626  -
1650  1743646  1744362  -
1651  1744418  1745194  -
1652  1745386  1746492  -
1653  1746512  1747471  -
1654  1747502  1748881  -
1655  1748894  1750351  -
1656  1750427  1752613  -
1657  1752628  1753113  -
1658  1753148  1754080  -
1659  1754115  1754543  -
1660  1754783  1756219  +
1661  1756290  1757411  -
1662  1757440  1758615  -
1663  1758620  1759828  -
1664  1760176  1761273  -
1665  1761426  1763714  -
1666  1763976  1764383  +
1667  1764611  1767172  -
1668  1767333  1768973  +
1669  1769066  1769260  +
1670  1769380  1770237  -
1671  1770258  1771040  -
1672  1771037  1771303  -
1673  1771240  1771701  -
1674  1771715  1772443  -
1675  1772447  1773103  -
1676  1773130  1774020  -
1677  1774014  1775147  -
1678  1775149  1777215  -
1679  1779097  1779366  -
1680  1779379  1780164  -
1681  1780168  1780530  -
1682  1780556  1781068  -
1683  1781065  1781802  -
1684  1781795  1782625  -
1685  1782629  1782841  -
1686  1783145  1784173  -
1687  1784258  1784653  -
1688  1784657  1785181  -
1689  1785193  1786458  -
1690  1786464  1786901  -
1691  1786924  1788246  -
1692  1788279  1789061  -
1693  1789045  1790067  -
1694  1790074  1791639  -
1695  1791656  1791958  -
1696  1791970  1792404  -
1697  1792431  1792811  -
1698  1793199  1794029  -
1699  1794272  1795093  +
1700  1795134  1795499  -
1701  1795631  1796128  +
1702  1796218  1796907  -
1703  1796912  1797793  -
1704  1797807  1798430  -
1705  1798435  1798800  -
1706  1798814  1799518  -
1707  1799640  1800155  -
1708  1800565  1800900  -
1709  1800980  1801168  -
1710  1801310  1802116  -
1711  1802226  1802606  -
1712  1802765  1803625  +
1713  1803881  1804825  -
1714  1804930  1805727  -
1715  1805941  1806423  -
1716  1806498  1807736  -
1717  1808156  1808395  -
1718  1808817  1810121  -
1719  1810192  1811322  -
1720  1811406  1812533  -
1721  1812559  1814220  -
1722  1814248  1815228  -
1723  1815250  1816272  -
1724  1816285  1817226  -
1725  1817379  1819424  -
1726  1819448  1820596  -
1727  1820660  1821709  -
1728  1821699  1822679  -
1729  1822712  1823695  -
1730  1823748  1824491  -
1731  1824551  1825606  -
1732  1825628  1826632  -
1733  1826648  1826977  -
1734  1826977  1828779  -
1735  1828967  1829794  -
1736  1830297  1830629  -
1737  1830649  1832319  -
1738  1832342  1832728  -
1739  1832743  1833027  -
1740  1833046  1833426  -
1741  1833454  1833666  -
1742  1833660  1834097  -
1743  1834419  1835369  -
1744  1835382  1837121  -
1745  1837154  1837561  -
1746  1837580  1837864  -
1747  1838003  1839241  -
1748  1839234  1840232  -
1749  1840249  1840653  -
1750  1840723  1841082  -
1751  1841098  1841697  -
1752  1841710  1844106  -
1753  1844119  1844886  -
1754  1845954  1846442  -
1755  1846472  1846930  -
1756  1846942  1848522  -
1757  1848647  1848937  -
1758  1848967  1849788  -
1759  1850050  1850703  -
1760  1850778  1851119  -
1761  1851264  1854785  -
1762  1855196  1855621  -
1763  1855693  1856769  -
1764  1856917  1857117  +
1765  1857165  1858931  -
1766  1859302  1860120  +
1767  1860244  1860837  -
1768  1861943  1862710  -
1769  1862722  1863525  -
1770  1863527  1863721  -
1771  1863853  1864482  -
1772  1864475  1865299  -
1773  1865320  1866192  -
1774  1866195  1866695  -
1775  1866948  1868171  -
1776  1868187  1868735  -
1777  1869141  1869575  +
1778  1869621  1871117  -
1779  1871307  1871879  -
1780  1871890  1872279  -
1781  1872308  1872943  -
1782  1872960  1873958  -
1783  1874307  1875203  +
1784  1875291  1876328  -
1785  1876451  1879330  -
1786  1879343  1881298  -
1787  1881470  1882117  -
1788  1882238  1883134  -
1789  1883395  1885110  -
1790  1885269  1885988  -
1791  1886105  1887451  +
1792  1887630  1887854  -
1793  1887860  1888996  -
1794  1889232  1890719  +
1795  1890737  1891918  +
1796  1891939  1892115  +
1797  1892127  1893212  +
1798  1893258  1893710  -
1799  1893713  1895098  -
1800  1895195  1896016  -
1801  1895977  1897221  -
1802  1897354  1898739  -
1803  1898736  1899299  -
1804  1899442  1900875  -
1805  1900875  1901441  -
1806  1901595  1902968  -
1807  1902955  1903482  -
1808  1903616  1904086  -
1809  1904218  1905048  -
1810  1905064  1906278  -
1811  1906478  1908238  -
1812  1908382  1909317  +
1813  1909434  1910801  +
1814  1910839  1912086  -
1815  1912129  1912860  -
1816  1912853  1913767  -
1817  1913879  1914790  -
1818  1914787  1915494  -
1819  1915540  1917906  -
1820  1917896  1918576  -
1821  1918598  1920040  -
1822  1920215  1921351  -
1823  1921775  1922005  +
1824  1922021  1922380  +
1825  1922425  1924164  -
1826  1924296  1925312  +
1827  1925665  1926663  +
1828  1926724  1927374  -
1829  1927512  1928057  +
1830  1928142  1929476  -
1831  1929460  1930041  -
1832  1930191  1930439  -
1833  1930457  1931701  -
1834  1931708  1932403  -
1835  1932489  1935026  -
1836  1935040  1935720  -
1837  1935906  1936835  -
1838  1936908  1937501  -
1839  1937667  1938368  +
1840  1938591  1938944  +
1841  1938941  1939630  +
1842  1939714  1941441  -
1843  1941603  1942697  -
1844  1942768  1943877  -
1845  1944088  1944723  -
1846  1944883  1946643  -
1847  1946790  1948949  -
1848  1949020  1950354  -
1849  1950420  1952483  -
1850  1952703  1953686  -
1851  1953705  1954739  -
1852  1954847  1955674  -
1853  1955756  1956943  -
1854  1957114  1958151  +
1855  1958204  1958938  -
1856  1959136  1959399  +
1857  1959441  1961171  -
1858  1961528  1963138  +
1859  1963126  1963905  +
1860  1963926  1967174  -
1861  1967316  1968038  +
1862  1968108  1968521  -
1863  1968611  1970050  -
1864  1970282  1970434  -
1865  1970578  1971135  +
1866  1971377  1972963  +
1867  1973130  1974290  +
1868  1974357  1976366  -
1869  1976575  1977009  +
1870  1977056  1977469  +
1871  1977603  1978286  -
1872  1978283  1978849  -
1873  1979029  1979649  -
1874  1979649  1981088  -
1875  1981078  1982499  -
1876  1982704  1984149  +
1877  1984250  1985587  -
1878  1986060  1989029  -
1879  1989054  1989851  -
1880  1989867  1991189  -
1881  1991410  1992165  -
1882  1992192  1992890  -
1883  1992909  1994141  -
1884  1994384  1995094  -
1885  1995155  1996177  -
1886  1996450  1997553  -
1887  1997963  1999030  +
1888  1999106  2000815  -
1889  2000949  2001317  -
1890  2001581  2002843  -
1891  2003107  2003862  +
1892  2003891  2004790  +
1893  2004829  2006034  -
1894  2006098  2007078  -
1895  2007254  2008837  -
1896  2009114  2010292  +
1897  2010371  2010826  -
1898  2010853  2011491  -
1899  2011488  2012348  -
1900  2012351  2012728  -
1901  2013140  2013451  +
1902  2013479  2013841  +
1903  2013866  2015623  +
1904  2015986  2016717  -
1905  2016894  2017217  -
1906  2017344  2017907  -
1907  2017897  2018361  -
1908  2018610  2019830  +
1909  2019983  2020540  +
1910  2020937  2021113  -
1911  2021141  2022811  +
1912  2022901  2023878  +
1913  2023871  2024707  +
1914  2024720  2025541  +
1915  2025541  2026143  +
1916  2026226  2027530  -
1917  2027523  2028221  -
1918  2028647  2029771  -
1919  2030365  2030649  -
1920  2030650  2030952  -
1921  2031229  2031693  -
1922  2032348  2032746  +
1923  2032848  2035814  -
1924  2036218  2037690  -
1925  2037687  2039495  -
1926  2039485  2042472  -
1927  2043201  2045789  -
1928  2045786  2046469  -
1929  2046552  2047541  -
1930  2047528  2048214  -
1931  2048211  2048405  -
1932  2048819  2049106  -
1933  2049557  2049730  -
1934  2049793  2050185  -
1935  2050517  2051134  -
1936  2051234  2051860  +
1937  2051876  2052550  +
1938  2052894  2053541  -
1939  2053689  2053901  -
1940  2053903  2054295  -
1941  2054549  2054860  -
1942  2054930  2056153  -
1943  2056143  2056583  -
1944  2056796  2057179  -
1945  2057176  2057418  -
1946  2057635  2058159  +
1947  2058191  2058736  -
1948  2058779  2059435  -
1949  2059432  2060217  -
1950  2060399  2060614  +
1951  2060653  2062320  -
1952  2062295  2062561  -
1953  2062572  2063540  -
1954  2063929  2065293  -
1955  2065312  2065680  -
1956  2065939  2067807  +
1957  2067862  2068620  -
1958  2068819  2070219  -
1959  2070500  2071393  +
1960  2073188  2074369  +
1961  2074515  2076044  -
1962  2076037  2077452  -
1963  2077470  2078159  -
1964  2078343  2080547  -
1965  2080705  2082507  +
1966  2082554  2083873  -
1967  2084059  2085000  -
1968  2085018  2086013  -
1969  2086236  2087483  -
1970  2087506  2089005  -
1971  2089019  2089639  -
1972  2089667  2090662  -
1973  2090681  2092078  -
1974  2092156  2092635  -
1975  2092849  2093514  +
1976  2093580  2093825  -
1977  2093943  2094521  -
1978  2094541  2095230  -
1979  2095629  2095898  +
1980  2095915  2096358  +
1981  2096499  2097230  +
1982  2097271  2098731  -
1983  2098988  2100382  -
1984  2100952  2101509  -
1985  2101651  2103117  -
1986  2103331  2105019  +
1987  2105016  2105783  +
1988  2106159  2108327  +
1989  2108449  2109135  +
1990  2109136  2110008  +
1991  2110061  2110951  -
1992  2111145  2111525  +
1993  2111530  2112426  +
1994  2112407  2113471  +
1995  2113489  2114181  +
1996  2114182  2114964  +
1997  2115094  2116430  +
1998  2116507  2118579  -
1999  2118829  2118966  +
2000  2118985  2119548  +
2001  2119615  2120919  -
2002  2120950  2121600  -
2003  2121746  2123527  -
2004  2123661  2123933  -
2005  2124330  2125034  +
2006  2125189  2126427  +
2007  2126483  2127433  -
2008  2128052  2128216  -
2009  2128461  2130035  +
2010  2130075  2131655  -
2011  2131785  2132663  -
2012  2132838  2133563  +
2013  2133591  2134550  -
2014  2135079  2135807  -
2015  2135868  2136683  -
2016  2136680  2137363  -
2017  2137383  2138267  -
2018  2138329  2139396  -
2019  2139416  2141185  -
2020  2141435  2142469  -
2021  2142648  2143715  +
2022  2143810  2146443  -
2023  2146492  2147136  -
2024  2147379  2147933  -
2025  2147935  2148678  -
2026  2148695  2149582  -
2027  2149592  2149990  -
2028  2150074  2150775  -
2029  2150802  2151305  -
2030  2151324  2153375  -
2031  2153449  2154633  -
2032  2154617  2154901  -
2033  2155014  2155469  -
2034  2155496  2155672  -
2035  2155822  2156166  -
2036  2156269  2157570  -
2037  2157570  2158322  -
2038  2158335  2159279  -
2039  2159632  2160759  -
2040  2160832  2162688  -
2041  2162754  2163335  -
2042  2163380  2164411  -
2043  2164602  2165750  -
2044  2165822  2167630  -
2045  2167707  2168063  -
2046  2168123  2169040  -
2047  2169242  2170291  -
2048  2170342  2171313  -
2049  2171512  2171769  +
2050  2171813  2172847  -
2051  2172868  2174544  -
2052  2174705  2177182  -
2053  2177251  2177532  -
2054  2177733  2178359  +
2055  2178426  2179427  -
2056  2179414  2181102  -
2057  2181209  2181643  -
2058  2181800  2182189  -
2059  2182591  2183157  -
2060  2183278  2184516  +
2061  2184566  2185471  -
2062  2185493  2186716  -
2063  2186723  2187292  -
2064  2187310  2187912  -
2065  2187932  2188225  -
2066  2188249  2189526  -
2067  2189545  2190087  -
2068  2190149  2190454  -
2069  2190456  2190785  -
2070  2190788  2191102  -
2071  2191259  2192692  -
2072  2192719  2193429  -
2073  2193398  2195260  -
2074  2195475  2196323  -
2075  2196338  2197111  -
2076  2197247  2198368  -
2077  2198715  2198981  -
2078  2198993  2199790  -
2079  2199803  2200435  -
2080  2200555  2203413  -
2081  2203417  2203908  -
2082  2203919  2204767  -
2083  2204771  2205787  -
2084  2205807  2206493  -
2085  2206509  2207087  -
2086  2207586  2208269  -
2087  2208411  2208974  -
2088  2209220  2209861  -
2089  2209872  2210369  -
2090  2210507  2211646  +
2091  2211762  2212760  -
2092  2212772  2213560  -
2093  2213567  2214709  -
2094  2214856  2215251  -
2095  2215269  2215715  -
2096  2215737  2216927  -
2097  2217022  2218365  -
2098  2218524  2219819  +
2099  2219892  2222012  -
2100  2222188  2222742  +
2101  2222964  2224490  -
2102  2224639  2226735  -
2103  2226837  2227934  -
2104  2227955  2229106  -
2105  2229103  2230659  -
2106  2230886  2233012  -
2107  2233073  2233705  -
2108  2233713  2235842  -
2109  2236490  2237035  -
2110  2237052  2237669  -
2111  2237704  2240334  -
2112  2240356  2241501  -
2113  2241760  2242416  +
2114  2242455  2242931  -
2115  2243230  2243517  -
2116  2243717  2243869  -
2117  2244030  2244266  +
2118  2244315  2244782  -
2119  2244783  2245454  -
2120  2245647  2246447  -
2121  2246448  2246711  -
2122  2246729  2246962  -
2123  2247035  2247310  -
2124  2247424  2248482  -
2125  2248485  2248862  -
2126  2248862  2249521  -
2127  2249525  2250172  -
2128  2251430  2252491  -
2129  2252484  2252924  -
2130  2252927  2253142  -
2131  2254259  2254678  -
2132  2254724  2257306  -
2133  2257360  2257737  -
2134  2257924  2258334  -
2135  2258336  2258488  -
2136  2258513  2258944  -
2137  2258964  2260025  -
2138  2260030  2260440  -
2139  2260509  2260739  -
2140  2260748  2261179  -
2141  2261154  2261513  -
2142  2261522  2261800  -
2143  2261809  2261946  -
2144  2261989  2263095  -
2145  2263127  2263807  -
2146  2263804  2265036  -
2147  2265048  2266739  -
2148  2266736  2267197  -
2149  2267273  2267701  -
2150  2267823  2268005  +
2151  2268060  2268470  +
2152  2268846  2269088  -
2153  2269452  2269604  -
2154  2269616  2270131  -
2155  2270156  2270380  -
2156  2270377  2270517  -
2157  2270520  2270909  -
2158  2271016  2271378  -
2159  2271462  2272178  -
2160  2272202  2272585  -
2161  2272722  2273003  -
2162  2273142  2273396  -
2163  2273410  2274306  -
2164  2274324  2274503  -
2165  2274496  2275302  -
2166  2275304  2276224  -
2167  2276217  2276648  -
2168  2276733  2276996  -
2169  2276990  2277145  -
2170  2277253  2277624  -
2171  2277629  2277841  -
2172  2277927  2278676  -
2173  2278843  2279016  -
2174  2279027  2279242  -
2175  2279479  2279880  +
2176  2279903  2281387  +
2177  2281472  2282092  -
2178  2282112  2283677  -
2179  2283729  2285648  -
2180  2285554  2286330  -
2181  2286391  2286951  -
2182  2287150  2288367  +
2183  2288432  2288644  +
2184  2288796  2289107  +
2185  2289135  2290328  -
2186  2290499  2290882  +
2187  2290959  2291240  +
2188  2291297  2292139  -
2189  2292317  2292781  -
2190  2292796  2293887  -
2191  2293929  2294471  -
2192  2294495  2294764  -
2193  2294797  2295543  -
2194  2295530  2296366  -
2195  2296378  2297019  -
2196  2297032  2297793  -
2197  2297895  2298179  -
2198  2298235  2299707  -
2199  2299722  2300255  -
2200  2300270  2300926  -
2201  2300944  2301828  -
2202  2301843  2303210  -
2203  2303249  2304682  -
2204  2304838  2306253  -
2205  2306270  2306848  -
2206  2306922  2307356  -
2207  2307367  2307720  -
2208  2307908  2309077  -
2209  2309254  2310060  -
2210  2310305  2311417  +
2211  2311504  2311908  -
2212  2311942  2312577  -
2213  2312598  2313269  -
2214  2313312  2313923  -
2215  2314063  2315007  +
2216  2315042  2315980  -
2217  2316134  2316523  -
2218  2316634  2317929  +
2219  2317995  2319773  -
2220  2319825  2321246  -
2221  2321283  2321888  -
2222  2321899  2322348  -
2223  2322360  2324555  -
2224  2324667  2325185  -
2225  2325235  2326080  -
2226  2326223  2327098  -
2227  2327099  2328364  -
2228  2328416  2329777  -
2229  2329862  2329999  -
2230  2330250  2330615  -
2231  2330676  2331053  -
2232  2331138  2332268  -
2233  2332315  2333340  -
2234  2333375  2334403  -
2235  2334417  2335010  -
2236  2335144  2335761  +
2237  2335843  2336583  -
2238  2336706  2337350  -
2239  2337355  2338032  -
2240  2339519  2340415  -
2241  2340797  2341018  -
2242  2341118  2344555  -
2243  2344872  2345033  -
2244  2345138  2346427  -
2245  2346446  2348227  -
2246  2348329  2349138  -
2247  2349174  2349833  -
2248  2350016  2351665  +
2249  2351704  2352798  +
2250  2352864  2353475  -
2251  2353501  2354079  -
2252  2354121  2354702  -
2253  2354847  2355662  -
2254  2355662  2356774  -
2255  2356828  2358171  -
2256  2358326  2359498  -
2257  2359636  2360631  -
2258  2361133  2361657  +
2259  2361733  2362413  -
2260  2362578  2364950  +
2261  2364987  2365346  -
2262  2365353  2366375  -
2263  2366408  2366866  -
2264  2366980  2367738  -
2265  2367753  2368178  -
2266  2368194  2368529  -
2267  2368798  2369643  +
2268  2369882  2371624  -
2269  2371798  2372640  +
2270  2372664  2373386  -
2271  2373401  2374054  -
2272  2374069  2375484  -
2273  2375595  2377151  -
2274  2377151  2378281  -
2275  2378268  2379512  -
2276  2379611  2380642  -
2277  2380639  2382078  -
2278  2382111  2383457  -
2279  2383473  2385017  -
2280  2385035  2386129  -
2281  2386178  2386918  -
2282  2386985  2388091  -
2283  2388149  2389465  -
2284  2389559  2390764  -
2285  2390784  2392625  -
2286  2392753  2393634  -
2287  2393727  2394809  -
2288  2395002  2396462  +
2289  2396498  2396959  -
2290  2396980  2399340  -
2291  2399361  2401724  -
2292  2401792  2402451  -
2293  2402563  2404938  -
2294  2404962  2405981  -
2295  2406303  2407085  -
2296  2407100  2407762  -
2297  2407777  2409123  -
2298  2409276  2409635  -
2299  2409662  2409859  -
2300  2409898  2410419  -
2301  2410601  2412520  -
2302  2412853  2413743  -
2303  2413847  2414548  +
2304  2415139  2416215  -
2305  2416712  2417596  -
2306  2417615  2418355  -
2307  2418392  2418646  -
2308  2418875  2419867  +
2309  2419894  2420778  +
2310  2420808  2421560  +
2311  2421607  2422251  -
2312  2422336  2422824  -
2313  2422893  2423642  -
2314  2423799  2424323  +
2315  2424315  2425196  -
2316  2425323  2425565  +
2317  2425617  2426912  -
2318  2426980  2429622  -
2319  2429994  2430611  -
2320  2430642  2432321  -
2321  2432370  2433263  -
2322  2433428  2434657  -
2323  2434892  2436079  -
2324  2436120  2437391  -
2325  2437706  2439004  -
2326  2439405  2440703  -
2327  2440735  2441565  -
2328  2441951  2442715  +
2329  2442723  2443196  +
2330  2443234  2444763  -
2331  2445103  2446566  -
2332  2446671  2448215  -
2333  2448553  2451588  -
2334  2451744  2453003  -
2335  2453097  2455121  -
2336  2455316  2456659  -
2337  2456659  2458662  -
2338  2459100  2460311  +
2339  2460348  2464643  -
2340  2464936  2465547  -
2341  2465547  2466929  -
2342  2466946  2468724  -
2343  2468733  2469326  -
2344  2469338  2469646  -
2345  2469683  2470108  -
2346  2470134  2472101  -
2347  2472113  2473162  -
2348  2473165  2473488  -
2349  2473618  2474442  -
2350  2474641  2475000  +
2351  2475030  2476205  -
2352  2476240  2476890  -
2353  2476918  2478150  -
2354  2478291  2478815  +
2355  2478841  2479722  -
2356  2479734  2480561  -
2357  2480566  2481750  -
2358  2482000  2483352  -
2359  2483418  2486900  -
2360  2487019  2488017  -
2361  2488108  2489028  -
2362  2489071  2490006  -
2363  2490034  2491551  -
2364  2491551  2491946  -
2365  2491949  2492878  -
2366  2493120  2493731  +
2367  2493799  2494296  -
2368  2494493  2495785  -
2369  2495809  2497128  -
2370  2497131  2498033  -
2371  2498043  2499527  -
2372  2499675  2500088  +
2373  2500132  2500533  -
2374  2500752  2501663  -
2375  2501817  2502476  +
2376  2502494  2503282  +
2377  2503382  2503804  +
2378  2503842  2505068  -
2379  2505367  2505714  -
2380  2505772  2505960  -
2381  2506004  2506447  -
2382  2506592  2507299  -
2383  2507390  2507980  -
2384  2507998  2510313  -
2385  2510529  2512220  -
2386  2512360  2513649  -
2387  2513676  2514260  -
2388  2514332  2515627  -
2389  2515846  2516625  -
2390  2516812  2517393  -
2391  2517415  2518308  -
2392  2518310  2519038  -
2393  2519053  2519919  -
2394  2519937  2521127  -
2395  2521130  2521564  -
2396  2521566  2522489  -
2397  2522698  2523270  -
2398  2524438  2524911  -
2399  2525059  2525664  -
2400  2525842  2527218  +
2401  2527307  2527465  +
2402  2527560  2527763  +
2403  2527787  2529220  -
2404  2529251  2530708  -
2405  2530739  2531029  -
2406  2531180  2531449  -
2407  2531475  2533481  -
2408  2533510  2535732  -
2409  2535884  2537068  -
2410  2537104  2538417  -
2411  2538476  2538778  -
2412  2539067  2539783  -
2413  2539867  2540493  -
2414  2540566  2542569  -
2415  2542794  2543234  -
2416  2543246  2544595  -
2417  2544707  2546065  -
2418  2546081  2546530  -
2419  2546762  2547208  -
2420  2547201  2547656  -
2421  2548185  2549717  -
2422  2549749  2551203  -
2423  2551534  2552280  -
2424  2552418  2554043  -
2425  2554084  2554368  -
2426  2554683  2555321  +
2427  2555325  2556050  -
2428  2556219  2557703  -
2429  2557907  2558842  -
2430  2558896  2560290  -
2431  2560290  2561180  -
2432  2561339  2562508  -
2433  2562718  2563566  -
2434  2563596  2564606  -
2435  2564627  2565406  -
2436  2565424  2566563  -
2437  2566577  2567359  -
2438  2567628  2568263  -
2439  2568433  2570346  +
2440  2570654  2571625  +
2441  2571669  2572481  -
2442  2572498  2573520  -
2443  2573705  2574319  +
2444  2574363  2574734  -
2445  2574737  2576002  -
2446  2576021  2577460  -
2447  2578628  2579458  -
2448  2579640  2580350  +
2449  2580452  2580832  -
2450  2580851  2581711  -
2451  2581715  2582611  -
2452  2582795  2583253  +
2453  2583250  2583963  +
2454  2583956  2584414  +
2455  2584461  2585684  -
2456  2585887  2586309  -
2457  2586497  2587609  -
2458  2587590  2589002  -
2459  2589120  2590199  +
2460  2590373  2590537  +
2461  2590852  2592441  -
2462  2592616  2593425  +
2463  2593496  2594497  -
2464  2594633  2595007  -
2465  2595258  2595455  +
2466  2595481  2603958  -
2467  2604062  2605360  -
2468  2605672  2606964  -
2469  2607073  2608257  +
2470  2608309  2609397  +
2471  2609418  2611550  -
2472  2611588  2613462  -
2473  2613637  2615118  -
2474  2615397  2616572  -
2475  2616689  2617864  -
2476  2617884  2619236  -
2477  2619395  2620948  -
2478  2620938  2621846  -
2479  2621861  2622145  -
2480  2622441  2623106  -
2481  2623426  2623866  +
2482  2623897  2624562  -
2483  2624638  2625207  -
2484  2625384  2625977  -
2485  2626016  2626699  -
2486  2626717  2627193  -
2487  2627186  2628034  -
2488  2628021  2630366  -
2489  2630599  2631234  -
2490  2631323  2631973  -
2491  2632084  2633337  -
2492  2633847  2635229  -
2493  2635254  2635955  -
2494  2636237  2637187  -
2495  2637198  2638019  -
2496  2637994  2638995  -
2497  2639011  2639781  -
2498  2639861  2640550  -
2499  2640562  2642316  -
2500  2642339  2643298  -
2501  2643543  2647034  -
2502  2647056  2648402  -
2503  2648406  2649362  -
2504  2649374  2650705  -
2505  2650702  2651586  -
2506  2651725  2652648  -
2507  2652793  2654661  -
2508  2654686  2655294  -
2509  2655399  2656295  -
2510  2656320  2657750  -
2511  2657752  2658954  -
2512  2658977  2659411  -
2513  2659509  2662331  -
2514  2662421  2664406  -
2515  2664410  2665708  -
2516  2665739  2666938  -
2517  2667100  2667990  -
2518  2667980  2668666  -
2519  2668850  2669704  -
2520  2669761  2670117  -
2521  2670077  2670397  -
2522  2670505  2671668  -
2523  2671687  2672295  -
2524  2672379  2673881  -
2525  2673878  2674258  -
2526  2674332  2674685  -
2527  2674919  2675374  -
2528  2675474  2676778  -
2529  2677155  2678456  +
2530  2678475  2679323  -
2531  2679718  2679987  +
2532  2680025  2681389  -
2533  2681503  2682450  -
2534  2682604  2683554  -
2535  2683566  2684756  -
2536  2684772  2685077  -
2537  2685064  2685648  -
2538  2685673  2687031  -
2539  2687117  2688313  -
2540  2688513  2690072  -
2541  2690203  2691183  -
2542  2691412  2691783  -
2543  2692017  2692418  +
2544  2692424  2693215  -
2545  2693199  2693960  -
2546  2693957  2694808  -
2547  2694814  2696133  -
2548  2696155  2697003  -
2549  2697000  2698133  -
2550  2698135  2699019  -
2551  2699073  2700071  -
2552  2700348  2702174  -
2553  2702536  2703882  -
2554  2704018  2705088  -
2555  2705111  2706019  -
2556  2706162  2707763  -
2557  2707744  2708994  -
2558  2708964  2709812  -
2559  2709985  2710974  +
2560  2711156  2711668  +
2561  2711702  2712568  -
2562  2712638  2712955  -
2563  2713050  2714303  -
2564  2714432  2715343  -
2565  2715360  2715872  -
2566  2715874  2716917  -
2567  2717037  2718578  -
2568  2718628  2719503  -
2569  2719541  2719804  -
2570  2719881  2720438  -
2571  2720452  2721294  -
2572  2721410  2722657  -
2573  2722798  2724249  -
2574  2724265  2725653  -
2575  2725723  2726136  -
2576  2726198  2727172  -
2577  2727372  2728076  -
2578  2728171  2728563  -
2579  2728594  2729028  -
2580  2729164  2729910  -
2581  2729913  2730710  -
2582  2730723  2731589  -
2583  2731574  2732419  -
2584  2732496  2732837  -
2585  2732872  2733819  -
2586  2733894  2734514  -
2587  2734545  2734943  -
2588  2734967  2735338  -
2589  2735445  2735558  -
2590  2735574  2735792  -
2591  2735799  2736080  -
2592  2736097  2736846  -
2593  2736846  2737496  -
2594  2737511  2738788  -
2595  2738790  2739230  -
2596  2739252  2739431  -
2597  2739444  2739941  -
2598  2739960  2740319  -
2599  2740340  2740882  -
2600  2740905  2741303  -
2601  2741334  2741519  -
2602  2741535  2742077  -
2603  2742099  2742419  -
2604  2742438  2742806  -
2605  2742837  2743091  -
2606  2743115  2743327  -
2607  2743317  2743760  -
2608  2743778  2744446  -
2609  2744463  2744798  -
2610  2744821  2745105  -
2611  2745172  2746002  -
2612  2746084  2746377  -
2613  2746377  2746997  -
2614  2747023  2747652  -
2615  2747743  2748051  -
2616  2748397  2749590  -
2617  2749640  2751709  -
2618  2751798  2752268  -
2619  2752439  2752816  -
2620  2752872  2753117  -
2621  2756794  2760504  -
2622  2760769  2761134  -
2623  2761171  2761671  -
2624  2761879  2762568  -
2625  2762621  2763046  -
2626  2763122  2763643  -
2627  2763720  2763956  -
2628  2763998  2764147  -
2629  2764338  2765531  -
2630  2765774  2766436  -
2631  2766483  2766995  -
2632  2766998  2767735  -
2633  2767750  2768484  -
2634  2768468  2768923  -
2635  2768956  2770353  -
2636  2770368  2771579  -
2637  2771630  2773342  -
2638  2773637  2774344  -
2639  2774370  2775473  -
2640  2775763  2776161  +
2641  2776202  2777275  -
2642  2777291  2778655  -
2643  2778788  2779513  -
2644  2779669  2782104  -
2645  2782133  2783155  -
2646  2783167  2783685  -
2647  2783742  2784200  -
2648  2784424  2785059  -
2649  2785118  2785342  -
2650  2785527  2786114  +
2651  2786171  2788255  -